Whale,Circle of Fire
Lion,Circle of Fire
Eagle,Circle of Fire
Cat,Dancing Animals
Snake,Dancing Animals
Parrot,Dancing Animals
Hamster,Dancing Animals
Hamster,Counting Masters
Whale,Counting Masters
Parrot,Counting Masters
Cat,Passionate Coders
Hamster,Passionate Coders
Snake,Passionate Coders